{
  "WEDNESDAY": [
    "TODO: 3.1"
  ],
  "MONDAY": [
    "TODO: 1.1",
    "TODO: 1.2",
    "bla"
  ],
  "THURSDAY": [
    "TODO: 4.1",
    "TODO: 4.2"
  ],
  "SUNDAY": [
    "TODO: 7.1"
  ],
  "TUESDAY": [
    "TODO: 2.1",
    "TODO: 2.2",
    "TODO: 2.3"
  ],
  "FRIDAY": [
    "TODO: 5.1",
    "TODO: 5.3",
    "TODO: 5.4"
  ],
  "SATURDAY": [
    "TODO: 6.1",
    "TODO: 6.2",
    "TODO: 6.3"
  ]
}